<svg width="50" height="50" viewBox="0 0 50 50" fill="none" xmlns="http://www.w3.org/2000/svg">
<path d="M11.0815 16.6931C11.0815 22.7054 20.3316 34.4702 24.9998 39.7811C29.668 34.4687 38.9183 22.7014 38.9183 16.6931C38.9181 9.0185 32.6744 2.77466 24.9998 2.77466C17.3252 2.77466 11.0815 9.0185 11.0815 16.6931ZM24.9998 8.75029C28.9316 8.75029 32.1302 11.949 32.1302 15.8807C32.1302 19.8125 28.9316 23.0112 24.9998 23.0112C21.068 23.0112 17.8693 19.8125 17.8693 15.8807C17.8693 11.949 21.068 8.75029 24.9998 8.75029Z" fill="#339DD1"/>
<path d="M46.9255 39.9276L32.5026 34.9671C32.922 34.4157 33.3469 33.8478 33.7728 33.2652C39.0281 26.0749 41.6929 20.4992 41.6929 16.693C41.6929 7.48838 34.2044 0 24.9999 0C15.7954 0 8.30701 7.48838 8.30701 16.6931C8.30701 20.4993 10.9718 26.0749 16.2271 33.2653C16.6566 33.8527 17.0849 34.4252 17.5076 34.9806L3.07579 39.9272C2.51532 40.1193 2.13877 40.6463 2.13843 41.2389C2.13808 41.8314 2.51427 42.3588 3.07452 42.5515L24.5118 49.9246C24.658 49.9748 24.8105 50 24.9629 50C25.1149 50 25.267 49.975 25.4128 49.9251L46.9242 42.552C47.4847 42.3599 47.8612 41.8329 47.8615 41.2404C47.8618 40.6478 47.4857 40.1203 46.9255 39.9276ZM38.9182 16.6931C38.9182 22.7013 29.668 34.4687 24.9998 39.781C20.3316 34.4702 11.0815 22.7054 11.0815 16.6931C11.0816 9.01847 17.3252 2.77463 24.9999 2.77463C32.6745 2.77463 38.9182 9.01847 38.9182 16.6931ZM24.9637 47.1459L7.79763 41.2418L19.3135 37.2945C21.8606 40.4797 23.8622 42.672 23.9766 42.7971C24.2395 43.084 24.6106 43.2474 24.9999 43.2474C25.389 43.2474 25.7602 43.084 26.0231 42.7971C26.1378 42.6717 28.145 40.473 30.6977 37.2803L42.2022 41.2373L24.9637 47.1459Z" fill="#237EB5"/>
<path d="M24.9998 23.011C28.9316 23.011 32.1303 19.8123 32.1303 15.8806C32.1303 11.9488 28.9316 8.75012 24.9998 8.75012C21.0681 8.75012 17.8694 11.9488 17.8694 15.8806C17.8694 19.8123 21.0681 23.011 24.9998 23.011ZM29.3557 15.8806C29.3557 18.2824 27.4017 20.2364 24.9998 20.2364C22.5979 20.2364 20.644 18.2825 20.644 15.8806C20.644 13.4789 22.5979 11.5248 24.9998 11.5248C27.4017 11.5248 29.3557 13.4789 29.3557 15.8806Z" fill="#68B212"/>
</svg>
