{
  "UnlimitedPlan": [
    {
      "Description": "Extreme Wash",
      "Amount": "$15.00 for a Extreme Wash",
      "Price": "$15.00",
      "Buyadd": "BuyNow!",
      "RecurringAmt": "$5.00",
      "Services": [
        "service item one",
        "service item two",
        "service item three",
        "service item four",
        "service item five"

      ]
    },
    {
      "Description": "Deluxe Wash",
      "Amount": "$25.00 for a Deluxe Wash",
      "Price": "$25.00",
      "Buyadd": "BuyNow!",
      "RecurringAmt": "$5.00",
      "Services": [
        "service item one",
        "service item two",
        "service item three",
        "service item four",
        "service item five"

      ]
    },
    {
      "Description": "Ultimate Wash",
      "Amount": "$100.00 for a Ultimate Wash",
      "Price": "$100.00",
      "Buyadd": "BuyNow!",
      "RecurringAmt": "$5.00",
      "Services": [
        "service item one",
        "service item two",
        "service item three",
        "service item four",
        "service item five"
      ]
    },
    {
      "Description": "Extreme Rain Check",
      "Amount": "$15.00 for a Extreme Rain Check",
      "Price": "$15.00",
      "Buyadd": "BuyNow!",
      "RecurringAmt": "$5.00",
      "Services": [
        "service item one",
        "service item two",
        "service item three",
        "service item four",
        "service item five"
      ]
    },
    {
      "Description": "Pet Hair Removal",
      "Amount": "$20.00 for a Pet Hair Removal",
      "Price": "$20.00",
      "Buyadd": "BuyNow!",
      "RecurringAmt": "$5.00",
      "Services": [
        "service item one",
        "service item two",
        "service item three",
        "service item four",
        "service item five"
      ]
    }
  ]
}